Unit 1 Independent Analysis
…
>>Were there differences in engagement across the two cohorts of educators?

PREPARE

The packages used for analysis include igraph and tidyverse.

The data set used will be referred to as DTL 2 and is available here.

The data consists of demographic info provided by participants upon registration + all forms of peer interaction that took place in the forums (i.e.peer discussion, feedback, and reactions (e.g., likes)).

WRANGLE

First, we read in the ‘edges’, or, in plain English, all that info related to the the peer-to-peer interaction just mentioned. The ties, or relationships between the actors/individuals.

## # A tibble: 2,584 x 8
##    Sender Receiver Timestamp Title Parent Description `Comment ID`
##    <chr>  <chr>    <chr>     <chr> <chr>  <chr>       <chr>       
##  1 37     461      9/27/13   Gree Group Please int 3           
##  2 434    434      9/27/13   Sher Group Please int 4           
##  3 302    434      9/27/13   Sher Group Please int 5           
##  4 60     434      9/27/13   Sher Group Please int 7           
##  5 128    434      9/29/13   Sher Group Please int 38          
##  6 158    434      9/30/13   Sher Group Please int 75          
##  7 442    434      10/1/13   Sher Group Please int 193         
##  8 43     245      9/27/13   Plan Group What would 6           
##  9 426    245      9/30/13   Plan Group What would 146         
## 10 142    245      10/1/13   Plan Group What would 201         
## #  with 2,574 more rows, and 1 more variable: `Discussion ID` <chr>

WRANGLE

Next, we read in the ‘nodes’, which contains demographic & other info about the actors/individuals

## # A tibble: 492 x 13
##    UID   Facilitator role  experience2 experience grades location region country
##    <chr> <chr>       <chr>       <dbl>      <dbl> <chr>  <chr>    <chr>  <chr>  
##  1 1     0           curr           2         17 gener IN       Midwe US     
##  2 2     0           other           1          3 prima NC       South  US     
##  3 3     0           inst           2         20 gener US       South  US     
##  4 4     0           inst           2         12 middle TX       South  US     
##  5 5     0           other           1          0 gener CAN      Inter CA     
##  6 6     0           inst           1          7 gener CAN      Inter CA     
##  7 7     0           oper           1          6 gener RI       North US     
##  8 8     0           curr           2         12 middle ME       North US     
##  9 9     0           other           2         11 gener VA       South  US     
## 10 10    0           inst           3         21 gener WV       South  US     
## #  with 482 more rows, and 4 more variables: group <chr>, gender <chr>,
## #   expert <chr>, connect <chr>
…
WRANGLE

We can also add weights to our edges to help us determine how frequently participants interacted with one another. Looks like participant 100 interacted with participant 302 a total of 4 times, for example.

## # A tibble: 2,080 x 3
##    Sender Receiver     n
##    <chr>  <chr>    <int>
##  1 10     321          1
##  2 100    100          1
##  3 100    161          1
##  4 100    183          1
##  5 100    22           1
##  6 100    302          4
##  7 100    426          1
##  8 101    300          1
##  9 106    361          1
## 10 107    302          1
## #  with 2,070 more rows
…
